/*
This file is part of DSGOV.BR - Web Components.

DSGOV.BR - Web Components is free software: you can redistribute it and/or modify
it under the terms of the GNU Lesser General Public License as published by
the Free Software Foundation, either version 3 of the License, or
at your option) any later version.

DSGOV.BR - Web Components is distributed in the hope that it will be useful,
but WITHOUT ANY WARRANTY; without even the implied warranty of
MERCHANTABILITY or FITNESS FOR A PARTICULAR PURPOSE. See the
GNU Lesser General Public License for more details.

You should have received a copy of the GNU Lesser General Public License
along with DSGOV.BR - Web Components. If not, see <https://www.gnu.org/licenses/>6.

Copyright 2021 Serpro.
*/
// Jest Snapshot v1, https://goo.gl/fbAQLP

exports[`Header it renders BrHeadersearch 1`] = `
<header
  class="br-header"
>
  <div
    class="container-lg"
  >
    <div
      class="header-top"
    >
      <div
        class="header-logo"
      >
        <!--v-if-->
        <!--v-if-->
        <!--v-if-->
      </div>
      
      
    </div>
    <div
      class="header-bottom"
    >
      <div
        class="header-menu"
      >
        <!--v-if-->
        <div
          class="header-info"
        >
          <!--v-if-->
          <!--v-if-->
        </div>
      </div>
      <div
        class="header-search"
      >
        <br-header-search-stub
          id="searchbox10"
          label="Texto da pesquisa"
          placeholder="O que você procura?"
        />
      </div>
    </div>
  </div>
</header>
`;

exports[`Header it renders Menu 1`] = `
<header
  class="br-header"
>
  <div
    class="container-lg"
  >
    <div
      class="header-top"
    >
      <div
        class="header-logo"
      >
        <!--v-if-->
        <!--v-if-->
        <!--v-if-->
      </div>
      
      
    </div>
    <div
      class="header-bottom"
    >
      <div
        class="header-menu"
      >
        <div
          class="header-menu-trigger"
        >
          
          <br-button-stub
            active="false"
            aria-label="Menu"
            block="false"
            circle="true"
            data-target="#main-navigation"
            data-toggle="menu"
            density="small"
            disabled="false"
            id="navigation"
            inverted="false"
            loading="false"
            rectangular="false"
          />
          
        </div>
        <div
          class="header-info"
        >
          <!--v-if-->
          <!--v-if-->
        </div>
      </div>
      <!--v-if-->
    </div>
  </div>
</header>
`;

exports[`Header it renders Title and subtitle 1`] = `
<header
  class="br-header"
>
  <div
    class="container-lg"
  >
    <div
      class="header-top"
    >
      <div
        class="header-logo"
      >
        <!--v-if-->
        <!--v-if-->
        <!--v-if-->
      </div>
      
      
    </div>
    <div
      class="header-bottom"
    >
      <div
        class="header-menu"
      >
        <!--v-if-->
        <div
          class="header-info"
        >
          <div
            class="header-title"
          >
            Título do Header
          </div>
          <div
            class="header-subtitle"
          >
            Subtítulo do Header
          </div>
        </div>
      </div>
      <!--v-if-->
    </div>
  </div>
</header>
`;

exports[`Header it renders logo image and signature 1`] = `
<header
  class="br-header"
>
  <div
    class="container-lg"
  >
    <div
      class="header-top"
    >
      <div
        class="header-logo"
      >
        <img
          alt="logo"
          src="https://cdn.dsgovserprodesign.estaleiro.serpro.gov.br/design-system/images/logo-positive.png"
        />
        <br-divider
          class="mx-half mx-sm-1"
          vertical=""
        />
        <div
          class="header-sign"
        >
          Assinatura da Empresa
        </div>
      </div>
      
      
    </div>
    <div
      class="header-bottom"
    >
      <div
        class="header-menu"
      >
        <!--v-if-->
        <div
          class="header-info"
        >
          <!--v-if-->
          <!--v-if-->
        </div>
      </div>
      <!--v-if-->
    </div>
  </div>
</header>
`;

exports[`HeaderAction it renders Login button 1`] = `
<header
  class="br-header"
>
  <div
    class="container-lg"
  >
    <div
      class="header-top"
    >
      <div
        class="header-logo"
      >
        <!--v-if-->
        <!--v-if-->
        <!--v-if-->
      </div>
      
      <div
        slot="headerAction"
      >
        <div
          class="header-actions"
        >
          <!--v-if-->
          <!--v-if-->
          <!--v-if-->
          <!--v-if-->
          <div
            class="header-login"
          >
            <div
              class="header-sign-in"
            >
              <button
                aria-label=""
                class="sign-in br-button small sign-in"
                data-trigger="login"
                type="button"
              >
                
                <font-awesome-icon-stub
                  aria-hidden="true"
                  border="false"
                  fixedwidth="false"
                  icon="user"
                  inverse="false"
                  listitem="false"
                  pulse="false"
                  spin="false"
                  swapopacity="false"
                  symbol="false"
                />
                <span
                  class="d-sm-inline"
                >
                  Entrar
                </span>
                
              </button>
            </div>
          </div>
        </div>
      </div>
      
    </div>
    <div
      class="header-bottom"
    >
      <div
        class="header-menu"
      >
        <!--v-if-->
        <div
          class="header-info"
        >
          <!--v-if-->
          <!--v-if-->
        </div>
      </div>
      <!--v-if-->
    </div>
  </div>
</header>
`;

exports[`HeaderAction it renders Search Button in compact mode 1`] = `
<header
  class="br-header compact"
>
  <div
    class="container-lg"
  >
    <div
      class="header-top"
    >
      <div
        class="header-logo"
      >
        <!--v-if-->
        <!--v-if-->
        <!--v-if-->
      </div>
      
      <div
        slot="headerAction"
      >
        <div
          class="header-actions"
          style="float: right;"
        >
          <!--v-if-->
          <!--v-if-->
          <!--v-if-->
          <div
            class="header-search-trigger"
            style="display: block;"
          >
            <br-header-action-search-stub />
          </div>
          <!--v-if-->
        </div>
      </div>
      
    </div>
    <div
      class="header-bottom"
    >
      <div
        class="header-menu"
      >
        <!--v-if-->
        <div
          class="header-info"
        >
          <!--v-if-->
          <!--v-if-->
        </div>
      </div>
      <div
        class="header-search"
      >
        <br-header-search-stub
          id="searchbox13"
          label="Texto da pesquisa"
          placeholder="O que você procura?"
        />
      </div>
    </div>
  </div>
</header>
`;

exports[`HeaderAction it renders functionalities 1`] = `
<header
  class="br-header"
>
  <div
    class="container-lg"
  >
    <div
      class="header-top"
    >
      <div
        class="header-logo"
      >
        <!--v-if-->
        <!--v-if-->
        <!--v-if-->
      </div>
      
      <div
        slot="headerAction"
      >
        <div
          class="header-actions"
        >
          <!--v-if-->
          <!--v-if-->
          <div
            class="header-functions dropdown"
          >
            <button
              aria-label="Funcionalidades do Sistema"
              class="br-button small circle"
              data-toggle="dropdown"
              type="button"
            >
              
              <font-awesome-icon-stub
                aria-hidden="true"
                border="false"
                fixedwidth="false"
                icon="th"
                inverse="false"
                listitem="false"
                pulse="false"
                spin="false"
                swapopacity="false"
                symbol="false"
              />
              
            </button>
            <div
              class="br-list"
              data-toggle="false"
              data-unique="false"
              role="list"
            >
              <!--v-if-->
              <!--v-if-->
              
              <div
                class="header"
              >
                <div
                  class="title"
                >
                  Funcionalidades do Sistema
                </div>
              </div>
              
              <a
                class="br-item align-items-center"
                href="http://www.url"
              >
                <div
                  class="content"
                >
                  
                  <button
                    aria-label=""
                    class="br-button small circle"
                    type="button"
                  >
                    
                    <font-awesome-icon-stub
                      aria-hidden="true"
                      border="false"
                      fixedwidth="false"
                      icon="chart-bar"
                      inverse="false"
                      listitem="false"
                      pulse="false"
                      size="1x"
                      spin="false"
                      swapopacity="false"
                      symbol="false"
                    />
                    <span
                      class="text"
                    >
                      Funcionalidade 1
                    </span>
                    
                  </button>
                  
                </div>
              </a>
              
              
            </div>
          </div>
          <!--v-if-->
          <!--v-if-->
        </div>
      </div>
      
    </div>
    <div
      class="header-bottom"
    >
      <div
        class="header-menu"
      >
        <!--v-if-->
        <div
          class="header-info"
        >
          <!--v-if-->
          <!--v-if-->
        </div>
      </div>
      <!--v-if-->
    </div>
  </div>
</header>
`;

exports[`HeaderAction it renders links 1`] = `
<header
  class="br-header"
>
  <div
    class="container-lg"
  >
    <div
      class="header-top"
    >
      <div
        class="header-logo"
      >
        <!--v-if-->
        <!--v-if-->
        <!--v-if-->
      </div>
      
      <div
        slot="headerAction"
      >
        <div
          class="header-actions"
        >
          <div
            class="header-links dropdown"
          >
            <br-button-stub
              active="false"
              aria-label="Acesso Rápido"
              block="false"
              circle="true"
              class=""
              data-toggle="dropdown"
              density="small"
              disabled="false"
              inverted="false"
              loading="false"
              rectangular="false"
            />
            <div
              class="br-list"
              data-toggle="false"
              data-unique="false"
              role="list"
            >
              <!--v-if-->
              <!--v-if-->
              
              <div
                class="header"
              >
                <div
                  class="title"
                >
                  Acesso Rápido
                </div>
              </div>
              
              <a
                class="br-item"
                data-toggle="selection"
                href="http://www.link"
              >
                <div
                  class="content"
                >
                  
                  Link de acesso 1
                  
                </div>
              </a>
              
              
            </div>
          </div>
          <!--v-if-->
          <!--v-if-->
          <!--v-if-->
          <!--v-if-->
        </div>
      </div>
      
    </div>
    <div
      class="header-bottom"
    >
      <div
        class="header-menu"
      >
        <!--v-if-->
        <div
          class="header-info"
        >
          <!--v-if-->
          <!--v-if-->
        </div>
      </div>
      <!--v-if-->
    </div>
  </div>
</header>
`;
