/*
This file is part of DSGOV.BR - Web Components.

DSGOV.BR - Web Components is free software: you can redistribute it and/or modify
it under the terms of the GNU Lesser General Public License as published by
the Free Software Foundation, either version 3 of the License, or
at your option) any later version.

DSGOV.BR - Web Components is distributed in the hope that it will be useful,
but WITHOUT ANY WARRANTY; without even the implied warranty of
MERCHANTABILITY or FITNESS FOR A PARTICULAR PURPOSE. See the
GNU Lesser General Public License for more details.

You should have received a copy of the GNU Lesser General Public License
along with DSGOV.BR - Web Components. If not, see <https://www.gnu.org/licenses/>6.

Copyright 2021 Serpro.
*/
// Jest Snapshot v1, https://goo.gl/fbAQLP

exports[`Breadcrumb it renders aria-label' 1`] = `
<div
  aria-label="Default"
  class="br-breadcrumb pt-3"
>
  <ul
    class="crumb-list"
  >
    
    
  </ul>
</div>
`;

exports[`Crumb has the expected html structure 1`] = `
<div
  class="br-breadcrumb pt-3"
>
  <ul
    class="crumb-list"
  >
    
    <li
      class="crumb home"
      title="Início"
    >
      <br-button-stub
        active="false"
        block="false"
        circle="true"
        density="small"
        disabled="false"
        inverted="false"
        loading="false"
        rectangular="false"
      />
      <!--v-if-->
      <!--v-if-->
    </li>
    <li
      class="crumb"
      title="Funcionalidade X"
    >
      <font-awesome-icon-stub
        aria-hidden="true"
        border="false"
        class="icon"
        fixedwidth="false"
        icon="chevron-right"
        inverse="false"
        listitem="false"
        pulse="false"
        size="sm"
        spin="false"
        swapopacity="false"
        symbol="false"
      />
      <!--v-if-->
      <a
        target="_self"
      >
        Funcionalidade X
      </a>
    </li>
    
  </ul>
</div>
`;
