/*
This file is part of DSGOV.BR - Web Components.

DSGOV.BR - Web Components is free software: you can redistribute it and/or modify
it under the terms of the GNU Lesser General Public License as published by
the Free Software Foundation, either version 3 of the License, or
at your option) any later version.

DSGOV.BR - Web Components is distributed in the hope that it will be useful,
but WITHOUT ANY WARRANTY; without even the implied warranty of
MERCHANTABILITY or FITNESS FOR A PARTICULAR PURPOSE. See the
GNU Lesser General Public License for more details.

You should have received a copy of the GNU Lesser General Public License
along with DSGOV.BR - Web Components. If not, see <https://www.gnu.org/licenses/>6.

Copyright 2021 Serpro.
*/
// Jest Snapshot v1, https://goo.gl/fbAQLP

exports[`br-list Inclui item no slot default 1`] = `
<div
  class="br-list"
  data-toggle="false"
  data-unique="false"
  role="list"
>
  <div
    class="header"
  >
    <div
      class="title"
    >
      Título do List
    </div>
  </div>
  <br-divider />
  
  <br-item
    title="Título do Item"
  />
  
</div>
`;
