/*
This file is part of DSGOV.BR - Web Components.

DSGOV.BR - Web Components is free software: you can redistribute it and/or modify
it under the terms of the GNU Lesser General Public License as published by
the Free Software Foundation, either version 3 of the License, or
at your option) any later version.

DSGOV.BR - Web Components is distributed in the hope that it will be useful,
but WITHOUT ANY WARRANTY; without even the implied warranty of
MERCHANTABILITY or FITNESS FOR A PARTICULAR PURPOSE. See the
GNU Lesser General Public License for more details.

You should have received a copy of the GNU Lesser General Public License
along with DSGOV.BR - Web Components. If not, see <https://www.gnu.org/licenses/>6.

Copyright 2021 Serpro.
*/
// Jest Snapshot v1, https://goo.gl/fbAQLP

exports[`BrAvatar has the expected html structure 1`] = `
<span
  class="br-avatar mt-1 small"
  title="Jhon Doe"
>
  <span
    class="image bg-support-01 text-secondary-01"
  >
    J
  </span>
</span>
`;
