/*
This file is part of DSGOV.BR - Web Components.

DSGOV.BR - Web Components is free software: you can redistribute it and/or modify
it under the terms of the GNU Lesser General Public License as published by
the Free Software Foundation, either version 3 of the License, or
at your option) any later version.

DSGOV.BR - Web Components is distributed in the hope that it will be useful,
but WITHOUT ANY WARRANTY; without even the implied warranty of
MERCHANTABILITY or FITNESS FOR A PARTICULAR PURPOSE. See the
GNU Lesser General Public License for more details.

You should have received a copy of the GNU Lesser General Public License
along with DSGOV.BR - Web Components. If not, see <https://www.gnu.org/licenses/>6.

Copyright 2021 Serpro.
*/
// Jest Snapshot v1, https://goo.gl/fbAQLP

exports[`MagicButton set icon 1`] = `
<div
  class="br-magic-button medium"
>
  <button
    class="br-button"
    type="button"
  >
    <font-awesome-icon-stub
      aria-hidden="true"
      border="false"
      fixedwidth="false"
      icon="car"
      inverse="false"
      listitem="false"
      pulse="false"
      spin="false"
      swapopacity="false"
      symbol="false"
    />
     
  </button>
</div>
`;

exports[`MagicButton set label attribute to create pill type 1`] = `
<div
  class="br-magic-button medium"
>
  <button
    class="br-button"
    type="button"
  >
    <!--v-if-->
     Label
  </button>
</div>
`;
